<?xml version="1.0" encoding="UTF-8" standalone="no"?>
<!-- Created with Inkscape (http://www.inkscape.org/) -->

<svg
   xmlns:dc="http://purl.org/dc/elements/1.1/"
   xmlns:cc="http://creativecommons.org/ns#"
   xmlns:rdf="http://www.w3.org/1999/02/22-rdf-syntax-ns#"
   xmlns:svg="http://www.w3.org/2000/svg"
   xmlns="http://www.w3.org/2000/svg"
   xmlns:sodipodi="http://sodipodi.sourceforge.net/DTD/sodipodi-0.dtd"
   xmlns:inkscape="http://www.inkscape.org/namespaces/inkscape"
   width="210mm"
   height="210mm"
   viewBox="0 0 210 210"
   version="1.1"
   id="svg9815"
   inkscape:version="0.92.1 r15371"
   sodipodi:docname="scaffolding1.svg">
  <defs
     id="defs9809">
    <marker
       inkscape:stockid="DotL"
       orient="auto"
       refY="0"
       refX="0"
       id="marker11082"
       style="overflow:visible"
       inkscape:isstock="true">
      <path
         inkscape:connector-curvature="0"
         id="path11080"
         d="m -2.5,-1 c 0,2.76 -2.24,5 -5,5 -2.76,0 -5,-2.24 -5,-5 0,-2.76 2.24,-5 5,-5 2.76,0 5,2.24 5,5 z"
         style="fill:#000000;fill-opacity:1;fill-rule:evenodd;stroke:#000000;stroke-width:1.00000003pt;stroke-opacity:1"
         transform="matrix(0.8,0,0,0.8,5.92,0.8)" />
    </marker>
    <marker
       inkscape:isstock="true"
       style="overflow:visible"
       id="marker4010"
       refX="0"
       refY="0"
       orient="auto"
       inkscape:stockid="DotL"
       inkscape:collect="always">
      <path
         transform="matrix(0.8,0,0,0.8,5.92,0.8)"
         style="fill:#000000;fill-opacity:1;fill-rule:evenodd;stroke:#000000;stroke-width:1.00000003pt;stroke-opacity:1"
         d="m -2.5,-1 c 0,2.76 -2.24,5 -5,5 -2.76,0 -5,-2.24 -5,-5 0,-2.76 2.24,-5 5,-5 2.76,0 5,2.24 5,5 z"
         id="path4008"
         inkscape:connector-curvature="0" />
    </marker>
    <marker
       inkscape:isstock="true"
       style="overflow:visible"
       id="marker4010-9"
       refX="0"
       refY="0"
       orient="auto"
       inkscape:stockid="DotL">
      <path
         transform="matrix(0.8,0,0,0.8,5.92,0.8)"
         style="fill:#000000;fill-opacity:1;fill-rule:evenodd;stroke:#000000;stroke-width:1.00000003pt;stroke-opacity:1"
         d="m -2.5,-1 c 0,2.76 -2.24,5 -5,5 -2.76,0 -5,-2.24 -5,-5 0,-2.76 2.24,-5 5,-5 2.76,0 5,2.24 5,5 z"
         id="path4008-4"
         inkscape:connector-curvature="0" />
    </marker>
  </defs>
  <sodipodi:namedview
     id="base"
     pagecolor="#ffffff"
     bordercolor="#666666"
     borderopacity="1.0"
     inkscape:pageopacity="0.0"
     inkscape:pageshadow="2"
     inkscape:zoom="0.89580357"
     inkscape:cx="289.82765"
     inkscape:cy="388.63627"
     inkscape:document-units="mm"
     inkscape:current-layer="layer1"
     showgrid="false"
     inkscape:window-width="1920"
     inkscape:window-height="1016"
     inkscape:window-x="0"
     inkscape:window-y="27"
     inkscape:window-maximized="1" />
  <metadata
     id="metadata9812">
    <rdf:RDF>
      <cc:Work
         rdf:about="">
        <dc:format>image/svg+xml</dc:format>
        <dc:type
           rdf:resource="http://purl.org/dc/dcmitype/StillImage" />
        <dc:title></dc:title>
      </cc:Work>
    </rdf:RDF>
  </metadata>
  <g
     inkscape:label="Layer 1"
     inkscape:groupmode="layer"
     id="layer1"
     transform="translate(0,-87)">
    <g
       id="g10335"
       transform="translate(-17.426161,-5.6118143)">
      <g
         id="g9832">
        <text
           xml:space="preserve"
           style="font-style:normal;font-variant:normal;font-weight:normal;font-stretch:normal;font-size:10.58333302px;line-height:6.61458302px;font-family:'Belgika 16th';-inkscape-font-specification:'Belgika 16th';letter-spacing:0px;word-spacing:0px;fill:#000000;fill-opacity:1;stroke:none;stroke-width:0.26458332px;stroke-linecap:butt;stroke-linejoin:miter;stroke-opacity:1"
           x="27.59226"
           y="117.46131"
           id="text9819"><tspan
             sodipodi:role="line"
             id="tspan9817"
             x="27.59226"
             y="117.46131"
             style="font-size:5.64444447px;line-height:0px;stroke-width:0.26458332px">adversarial</tspan><tspan
             sodipodi:role="line"
             x="27.59226"
             y="124.0759"
             style="font-size:5.64444447px;line-height:0px;stroke-width:0.26458332px"
             id="tspan9821">design</tspan></text>
        <text
           xml:space="preserve"
           style="font-style:normal;font-variant:normal;font-weight:normal;font-stretch:normal;font-size:10.58333302px;line-height:6.61458302px;font-family:'Belgika 16th';-inkscape-font-specification:'Belgika 16th';letter-spacing:0px;word-spacing:0px;fill:#000000;fill-opacity:1;stroke:none;stroke-width:0.26458332px;stroke-linecap:butt;stroke-linejoin:miter;stroke-opacity:1"
           x="27.478088"
           y="129.46205"
           id="text9825"><tspan
             sodipodi:role="line"
             id="tspan9823"
             x="27.478088"
             y="129.46205"
             style="font-style:italic;font-variant:normal;font-weight:normal;font-stretch:normal;font-size:4.23333311px;font-family:'HK Grotesk';-inkscape-font-specification:'HK Grotesk Italic';stroke-width:0.26458332px">Carl Disalvo</tspan></text>
      </g>
      <g
         id="g9832-7"
         transform="translate(21.875574,24.430577)">
        <text
           xml:space="preserve"
           style="font-style:normal;font-variant:normal;font-weight:normal;font-stretch:normal;font-size:10.58333302px;line-height:6.61458302px;font-family:'Belgika 16th';-inkscape-font-specification:'Belgika 16th';letter-spacing:0px;word-spacing:0px;fill:#000000;fill-opacity:1;stroke:none;stroke-width:0.26458332px;stroke-linecap:butt;stroke-linejoin:miter;stroke-opacity:1"
           x="27.59226"
           y="117.46131"
           id="text9819-6"><tspan
             sodipodi:role="line"
             x="27.59226"
             y="117.46131"
             style="font-size:5.64444447px;line-height:0px;stroke-width:0.26458332px"
             id="tspan9821-2">For an agonistic model</tspan><tspan
             id="tspan9866"
             sodipodi:role="line"
             x="27.59226"
             y="124.0759"
             style="font-size:5.64444447px;line-height:0px;stroke-width:0.26458332px">of democracy</tspan></text>
        <text
           xml:space="preserve"
           style="font-style:normal;font-variant:normal;font-weight:normal;font-stretch:normal;font-size:10.58333302px;line-height:6.61458302px;font-family:'Belgika 16th';-inkscape-font-specification:'Belgika 16th';letter-spacing:0px;word-spacing:0px;fill:#000000;fill-opacity:1;stroke:none;stroke-width:0.26458332px;stroke-linecap:butt;stroke-linejoin:miter;stroke-opacity:1"
           x="27.478088"
           y="129.46205"
           id="text9825-0"><tspan
             sodipodi:role="line"
             id="tspan9823-6"
             x="27.478088"
             y="129.46205"
             style="font-style:italic;font-variant:normal;font-weight:normal;font-stretch:normal;font-size:4.23333311px;font-family:'HK Grotesk';-inkscape-font-specification:'HK Grotesk Italic';stroke-width:0.26458332px">Chantal Mouffe</tspan></text>
      </g>
      <g
         transform="translate(-5.0210971,3.8396624)"
         id="g10029">
        <text
           xml:space="preserve"
           style="font-style:normal;font-variant:normal;font-weight:normal;font-stretch:normal;font-size:10.58333302px;line-height:6.61458302px;font-family:'Belgika 16th';-inkscape-font-specification:'Belgika 16th';letter-spacing:0px;word-spacing:0px;fill:#000000;fill-opacity:1;stroke:none;stroke-width:0.26458332px;stroke-linecap:butt;stroke-linejoin:miter;stroke-opacity:1"
           x="79.45269"
           y="107.20897"
           id="text9819-6-3"><tspan
             id="tspan9900"
             sodipodi:role="line"
             x="79.45269"
             y="107.20897"
             style="font-size:5.64444447px;line-height:0px;stroke-width:0.26458332px">smart gadgets,</tspan><tspan
             id="tspan9906"
             sodipodi:role="line"
             x="79.45269"
             y="113.82355"
             style="font-size:5.64444447px;line-height:0px;stroke-width:0.26458332px">dumb humans</tspan><tspan
             id="tspan9904"
             sodipodi:role="line"
             x="79.45269"
             y="120.43813"
             style="font-size:3.52777767px;line-height:0px;stroke-width:0.26458332px">from <tspan
   id="tspan10178"
   style="font-style:normal;font-variant:normal;font-weight:normal;font-stretch:normal;font-family:'Belgika 8th';-inkscape-font-specification:'Belgika 8th'">To save everything click here</tspan></tspan></text>
        <text
           xml:space="preserve"
           style="font-style:normal;font-variant:normal;font-weight:normal;font-stretch:normal;font-size:10.58333302px;line-height:6.61458302px;font-family:'Belgika 16th';-inkscape-font-specification:'Belgika 16th';letter-spacing:0px;word-spacing:0px;fill:#000000;fill-opacity:1;stroke:none;stroke-width:0.26458332px;stroke-linecap:butt;stroke-linejoin:miter;stroke-opacity:1"
           x="79.338516"
           y="125.03051"
           id="text9825-0-9"><tspan
             sodipodi:role="line"
             id="tspan9823-6-0"
             x="79.338516"
             y="125.03051"
             style="font-style:italic;font-variant:normal;font-weight:normal;font-stretch:normal;font-size:4.23333311px;font-family:'HK Grotesk';-inkscape-font-specification:'HK Grotesk Italic';stroke-width:0.26458332px">Evgeny Morozov</tspan></text>
      </g>
    </g>
    <g
       id="g10391"
       transform="translate(-5.6118143,2.9535865)">
      <g
         transform="translate(-34.106691,30.079076)"
         id="g9974">
        <g
           transform="translate(15.35865,0.5907173)"
           id="g10290">
          <text
             id="text9819-6-8"
             y="167.93501"
             x="116.1717"
             style="font-style:normal;font-variant:normal;font-weight:normal;font-stretch:normal;font-size:10.58333302px;line-height:6.61458302px;font-family:'Belgika 16th';-inkscape-font-specification:'Belgika 16th';letter-spacing:0px;word-spacing:0px;fill:#000000;fill-opacity:1;stroke:none;stroke-width:0.26458332px;stroke-linecap:butt;stroke-linejoin:miter;stroke-opacity:1"
             xml:space="preserve"><tspan
               style="font-size:5.64444447px;line-height:0px;stroke-width:0.26458332px"
               y="167.93501"
               x="116.1717"
               sodipodi:role="line"
               id="tspan9962">the mismanaged heart</tspan></text>
          <text
             id="text9825-0-2"
             y="173.05661"
             x="116.05753"
             style="font-style:normal;font-variant:normal;font-weight:normal;font-stretch:normal;font-size:10.58333302px;line-height:6.61458302px;font-family:'Belgika 16th';-inkscape-font-specification:'Belgika 16th';letter-spacing:0px;word-spacing:0px;fill:#000000;fill-opacity:1;stroke:none;stroke-width:0.26458332px;stroke-linecap:butt;stroke-linejoin:miter;stroke-opacity:1"
             xml:space="preserve"><tspan
               style="font-style:italic;font-variant:normal;font-weight:normal;font-stretch:normal;font-size:4.23333311px;font-family:'HK Grotesk';-inkscape-font-specification:'HK Grotesk Italic';stroke-width:0.26458332px"
               y="173.05661"
               x="116.05753"
               id="tspan9823-6-9"
               sodipodi:role="line">William Davies</tspan></text>
        </g>
      </g>
      <g
         transform="translate(94.810126,-10.632911)"
         id="g10021">
        <text
           xml:space="preserve"
           style="font-style:normal;font-variant:normal;font-weight:normal;font-stretch:normal;font-size:10.58333302px;line-height:6.61458302px;font-family:'Belgika 16th';-inkscape-font-specification:'Belgika 16th';letter-spacing:0px;word-spacing:0px;fill:#000000;fill-opacity:1;stroke:none;stroke-width:0.26458332px;stroke-linecap:butt;stroke-linejoin:miter;stroke-opacity:1"
           x="45.490479"
           y="188.95261"
           id="text9819-6-8-3"><tspan
             id="tspan9962-8"
             sodipodi:role="line"
             x="45.490479"
             y="188.95261"
             style="font-size:5.64444447px;line-height:0px;stroke-width:0.26458332px">Surveillance</tspan><tspan
             id="tspan10003"
             sodipodi:role="line"
             x="45.490479"
             y="195.56718"
             style="font-size:5.64444447px;line-height:0px;stroke-width:0.26458332px">and capture</tspan></text>
        <text
           xml:space="preserve"
           style="font-style:normal;font-variant:normal;font-weight:normal;font-stretch:normal;font-size:10.58333302px;line-height:6.61458302px;font-family:'Belgika 16th';-inkscape-font-specification:'Belgika 16th';letter-spacing:0px;word-spacing:0px;fill:#000000;fill-opacity:1;stroke:none;stroke-width:0.26458332px;stroke-linecap:butt;stroke-linejoin:miter;stroke-opacity:1"
           x="45.376312"
           y="199.89503"
           id="text9825-0-2-0"><tspan
             sodipodi:role="line"
             id="tspan9823-6-9-9"
             x="45.376312"
             y="199.89503"
             style="font-style:italic;font-variant:normal;font-weight:normal;font-stretch:normal;font-size:4.23333311px;font-family:'HK Grotesk';-inkscape-font-specification:'HK Grotesk Italic';stroke-width:0.26458332px">Phil E. Aigre</tspan></text>
      </g>
      <g
         id="g10021-2"
         transform="translate(33.232743,-19.585399)">
        <text
           xml:space="preserve"
           style="font-style:normal;font-variant:normal;font-weight:normal;font-stretch:normal;font-size:10.58333302px;line-height:6.61458302px;font-family:'Belgika 16th';-inkscape-font-specification:'Belgika 16th';letter-spacing:0px;word-spacing:0px;fill:#000000;fill-opacity:1;stroke:none;stroke-width:0.26458332px;stroke-linecap:butt;stroke-linejoin:miter;stroke-opacity:1"
           x="45.490479"
           y="188.95261"
           id="text9819-6-8-3-3"><tspan
             id="tspan10003-8"
             sodipodi:role="line"
             x="45.490479"
             y="188.95261"
             style="font-size:5.64444447px;line-height:0px;stroke-width:0.26458332px">The impossibity</tspan><tspan
             id="tspan10063"
             sodipodi:role="line"
             x="45.490479"
             y="195.56718"
             style="font-size:5.64444447px;line-height:0px;stroke-width:0.26458332px">of interfaces</tspan></text>
        <text
           xml:space="preserve"
           style="font-style:normal;font-variant:normal;font-weight:normal;font-stretch:normal;font-size:10.58333302px;line-height:6.61458302px;font-family:'Belgika 16th';-inkscape-font-specification:'Belgika 16th';letter-spacing:0px;word-spacing:0px;fill:#000000;fill-opacity:1;stroke:none;stroke-width:0.26458332px;stroke-linecap:butt;stroke-linejoin:miter;stroke-opacity:1"
           x="45.376312"
           y="199.89503"
           id="text9825-0-2-0-7"><tspan
             sodipodi:role="line"
             id="tspan9823-6-9-9-4"
             x="45.376312"
             y="199.89503"
             style="font-style:italic;font-variant:normal;font-weight:normal;font-stretch:normal;font-size:4.23333311px;font-family:'HK Grotesk';-inkscape-font-specification:'HK Grotesk Italic';stroke-width:0.26458332px">Matthew Fuller</tspan></text>
      </g>
      <g
         id="g10021-2-1"
         transform="translate(23.502591,27.856373)">
        <g
           id="g10104">
          <text
             id="text9819-6-8-3-3-6"
             y="188.95261"
             x="45.490479"
             style="font-style:normal;font-variant:normal;font-weight:normal;font-stretch:normal;font-size:10.58333302px;line-height:6.61458302px;font-family:'Belgika 16th';-inkscape-font-specification:'Belgika 16th';letter-spacing:0px;word-spacing:0px;fill:#000000;fill-opacity:1;stroke:none;stroke-width:0.26458332px;stroke-linecap:butt;stroke-linejoin:miter;stroke-opacity:1"
             xml:space="preserve"><tspan
               style="font-size:5.64444447px;line-height:0px;stroke-width:0.26458332px"
               y="188.95261"
               x="45.490479"
               sodipodi:role="line"
               id="tspan10063-8">It looks like you're</tspan><tspan
               style="font-size:5.64444447px;line-height:0px;stroke-width:0.26458332px"
               y="195.56718"
               x="45.490479"
               sodipodi:role="line"
               id="tspan10097">writing a letter</tspan></text>
          <text
             id="text9825-0-2-0-7-5"
             y="199.89503"
             x="45.376312"
             style="font-style:normal;font-variant:normal;font-weight:normal;font-stretch:normal;font-size:10.58333302px;line-height:6.61458302px;font-family:'Belgika 16th';-inkscape-font-specification:'Belgika 16th';letter-spacing:0px;word-spacing:0px;fill:#000000;fill-opacity:1;stroke:none;stroke-width:0.26458332px;stroke-linecap:butt;stroke-linejoin:miter;stroke-opacity:1"
             xml:space="preserve"><tspan
               style="font-style:italic;font-variant:normal;font-weight:normal;font-stretch:normal;font-size:4.23333311px;font-family:'HK Grotesk';-inkscape-font-specification:'HK Grotesk Italic';stroke-width:0.26458332px"
               y="199.89503"
               x="45.376312"
               id="tspan9823-6-9-9-4-5"
               sodipodi:role="line">Matthew Fuller</tspan></text>
        </g>
      </g>
      <g
         id="g10021-2-4"
         transform="translate(-2.9798435,2.6208993)">
        <text
           xml:space="preserve"
           style="font-style:normal;font-variant:normal;font-weight:normal;font-stretch:normal;font-size:10.58333302px;line-height:6.61458302px;font-family:'Belgika 16th';-inkscape-font-specification:'Belgika 16th';letter-spacing:0px;word-spacing:0px;fill:#000000;fill-opacity:1;stroke:none;stroke-width:0.26458332px;stroke-linecap:butt;stroke-linejoin:miter;stroke-opacity:1"
           x="45.490479"
           y="188.95261"
           id="text9819-6-8-3-3-8"><tspan
             id="tspan10003-8-5"
             sodipodi:role="line"
             x="45.490479"
             y="188.95261"
             style="font-size:5.64444447px;line-height:0px;stroke-width:0.26458332px">The interface</tspan><tspan
             id="tspan10063-6"
             sodipodi:role="line"
             x="45.490479"
             y="195.56718"
             style="font-size:5.64444447px;line-height:0px;stroke-width:0.26458332px">effect</tspan></text>
        <text
           xml:space="preserve"
           style="font-style:normal;font-variant:normal;font-weight:normal;font-stretch:normal;font-size:10.58333302px;line-height:6.61458302px;font-family:'Belgika 16th';-inkscape-font-specification:'Belgika 16th';letter-spacing:0px;word-spacing:0px;fill:#000000;fill-opacity:1;stroke:none;stroke-width:0.26458332px;stroke-linecap:butt;stroke-linejoin:miter;stroke-opacity:1"
           x="45.376312"
           y="199.89503"
           id="text9825-0-2-0-7-2"><tspan
             sodipodi:role="line"
             id="tspan9823-6-9-9-4-52"
             x="45.376312"
             y="199.89503"
             style="font-style:italic;font-variant:normal;font-weight:normal;font-stretch:normal;font-size:4.23333311px;font-family:'HK Grotesk';-inkscape-font-specification:'HK Grotesk Italic';stroke-width:0.26458332px">Alexander Galloway</tspan></text>
      </g>
    </g>
    <g
       id="g10313"
       transform="translate(9.4514767,7.0886076)">
      <g
         id="g10358"
         transform="translate(2.6582278,11.814346)">
        <g
           id="g10194"
           transform="translate(7.9746837,-10.337553)">
          <text
             id="text9819-6-8-3-3-8-9"
             y="257.79523"
             x="113.35815"
             style="font-style:normal;font-variant:normal;font-weight:normal;font-stretch:normal;font-size:10.58333302px;line-height:6.61458302px;font-family:'Belgika 16th';-inkscape-font-specification:'Belgika 16th';letter-spacing:0px;word-spacing:0px;fill:#000000;fill-opacity:1;stroke:none;stroke-width:0.26458332px;stroke-linecap:butt;stroke-linejoin:miter;stroke-opacity:1"
             xml:space="preserve"><tspan
               style="font-size:5.64444447px;line-height:0px;stroke-width:0.26458332px"
               y="257.79523"
               x="113.35815"
               sodipodi:role="line"
               id="tspan10063-6-3">Tactics of</tspan><tspan
               style="font-size:5.64444447px;line-height:0px;stroke-width:0.26458332px"
               y="264.40982"
               x="113.35815"
               sodipodi:role="line"
               id="tspan10168">non existance</tspan><tspan
               style="font-size:3.52777767px;line-height:0px;stroke-width:0.26458332px"
               y="271.02438"
               x="113.35815"
               sodipodi:role="line"
               id="tspan10174">from <tspan
   style="font-style:normal;font-variant:normal;font-weight:normal;font-stretch:normal;font-family:'Belgika 8th';-inkscape-font-specification:'Belgika 8th'"
   id="tspan10176">The Exploit</tspan></tspan></text>
          <text
             id="text9825-0-2-0-7-2-3"
             y="277.20438"
             x="113.24399"
             style="font-style:normal;font-variant:normal;font-weight:normal;font-stretch:normal;font-size:10.58333302px;line-height:6.61458302px;font-family:'Belgika 16th';-inkscape-font-specification:'Belgika 16th';letter-spacing:0px;word-spacing:0px;fill:#000000;fill-opacity:1;stroke:none;stroke-width:0.26458332px;stroke-linecap:butt;stroke-linejoin:miter;stroke-opacity:1"
             xml:space="preserve"><tspan
               style="font-style:italic;font-variant:normal;font-weight:normal;font-stretch:normal;font-size:4.23333311px;line-height:0px;font-family:'HK Grotesk';-inkscape-font-specification:'HK Grotesk Italic';stroke-width:0.26458332px"
               y="277.20438"
               x="113.24399"
               sodipodi:role="line"
               id="tspan10170">Alexander Galloway &amp; Eugene Thacker</tspan></text>
        </g>
        <g
           transform="translate(-57.091566,-5.7815083)"
           id="g10194-2">
          <text
             id="text9819-6-8-3-3-8-9-3"
             y="257.79523"
             x="113.35815"
             style="font-style:normal;font-variant:normal;font-weight:normal;font-stretch:normal;font-size:10.58333302px;line-height:6.61458302px;font-family:'Belgika 16th';-inkscape-font-specification:'Belgika 16th';letter-spacing:0px;word-spacing:0px;fill:#000000;fill-opacity:1;stroke:none;stroke-width:0.26458332px;stroke-linecap:butt;stroke-linejoin:miter;stroke-opacity:1"
             xml:space="preserve"><tspan
               style="font-size:5.64444447px;line-height:0px;stroke-width:0.26458332px"
               y="257.79523"
               x="113.35815"
               sodipodi:role="line"
               id="tspan10168-1">Transparency and</tspan><tspan
               style="font-size:5.64444447px;line-height:0px;stroke-width:0.26458332px"
               y="264.40982"
               x="113.35815"
               sodipodi:role="line"
               id="tspan10242">opacit</tspan><tspan
               style="font-size:3.52777767px;line-height:0px;stroke-width:0.26458332px"
               y="271.02438"
               x="113.35815"
               sodipodi:role="line"
               id="tspan10174-7">from <tspan
   style="font-style:normal;font-variant:normal;font-weight:normal;font-stretch:normal;font-family:'Belgika 8th';-inkscape-font-specification:'Belgika 8th'"
   id="tspan10176-8">Poetics of relations</tspan></tspan></text>
          <text
             id="text9825-0-2-0-7-2-3-9"
             y="277.20438"
             x="113.24399"
             style="font-style:normal;font-variant:normal;font-weight:normal;font-stretch:normal;font-size:10.58333302px;line-height:6.61458302px;font-family:'Belgika 16th';-inkscape-font-specification:'Belgika 16th';letter-spacing:0px;word-spacing:0px;fill:#000000;fill-opacity:1;stroke:none;stroke-width:0.26458332px;stroke-linecap:butt;stroke-linejoin:miter;stroke-opacity:1"
             xml:space="preserve"><tspan
               style="font-style:italic;font-variant:normal;font-weight:normal;font-stretch:normal;font-size:4.23333311px;line-height:0px;font-family:'HK Grotesk';-inkscape-font-specification:'HK Grotesk Italic';stroke-width:0.26458332px"
               y="277.20438"
               x="113.24399"
               sodipodi:role="line"
               id="tspan10170-4">Edouard Glissant</tspan></text>
        </g>
        <g
           id="g10284"
           transform="translate(31.603375,-50.21097)">
          <text
             id="text9819-6-8-3-3-8-6"
             y="285.36737"
             x="64.21682"
             style="font-style:normal;font-variant:normal;font-weight:normal;font-stretch:normal;font-size:10.58333302px;line-height:6.61458302px;font-family:'Belgika 16th';-inkscape-font-specification:'Belgika 16th';letter-spacing:0px;word-spacing:0px;fill:#000000;fill-opacity:1;stroke:none;stroke-width:0.26458332px;stroke-linecap:butt;stroke-linejoin:miter;stroke-opacity:1"
             xml:space="preserve"><tspan
               style="font-size:5.64444447px;line-height:0px;stroke-width:0.26458332px"
               y="285.36737"
               x="64.21682"
               sodipodi:role="line"
               id="tspan10063-6-35">Contra-internet</tspan></text>
          <text
             id="text9825-0-2-0-7-2-4"
             y="290.84567"
             x="64.102654"
             style="font-style:normal;font-variant:normal;font-weight:normal;font-stretch:normal;font-size:10.58333302px;line-height:6.61458302px;font-family:'Belgika 16th';-inkscape-font-specification:'Belgika 16th';letter-spacing:0px;word-spacing:0px;fill:#000000;fill-opacity:1;stroke:none;stroke-width:0.26458332px;stroke-linecap:butt;stroke-linejoin:miter;stroke-opacity:1"
             xml:space="preserve"><tspan
               style="font-style:italic;font-variant:normal;font-weight:normal;font-stretch:normal;font-size:4.23333311px;font-family:'HK Grotesk';-inkscape-font-specification:'HK Grotesk Italic';stroke-width:0.26458332px"
               y="290.84567"
               x="64.102654"
               id="tspan9823-6-9-9-4-52-8"
               sodipodi:role="line">Zach Blas</tspan></text>
        </g>
      </g>
    </g>
    <path
       inkscape:connector-curvature="0"
       style="color:#000000;font-style:normal;font-variant:normal;font-weight:normal;font-stretch:normal;font-size:medium;line-height:normal;font-family:sans-serif;text-indent:0;text-align:start;text-decoration:none;text-decoration-line:none;text-decoration-style:solid;text-decoration-color:#000000;letter-spacing:normal;word-spacing:normal;text-transform:none;writing-mode:lr-tb;direction:ltr;baseline-shift:baseline;text-anchor:start;white-space:normal;clip-rule:nonzero;display:inline;overflow:visible;visibility:visible;opacity:1;isolation:auto;mix-blend-mode:normal;color-interpolation:sRGB;color-interpolation-filters:linearRGB;solid-color:#000000;solid-opacity:1;fill:none;fill-opacity:1;fill-rule:nonzero;stroke:#000000;stroke-width:0.222;stroke-linecap:butt;stroke-linejoin:miter;stroke-miterlimit:6.25;stroke-dasharray:none;stroke-dashoffset:0;stroke-opacity:1;marker-end:;color-rendering:auto;image-rendering:auto;shape-rendering:auto;text-rendering:auto;enable-background:accumulate"
       d="m 50.663064,157.14821 v 0 c 0,7.24301 5.87322,13.11623 13.11694,13.11622"
       id="path3557-1-5-8" />
    <path
       inkscape:connector-curvature="0"
       style="color:#000000;font-style:normal;font-variant:normal;font-weight:normal;font-stretch:normal;font-size:medium;line-height:normal;font-family:sans-serif;text-indent:0;text-align:start;text-decoration:none;text-decoration-line:none;text-decoration-style:solid;text-decoration-color:#000000;letter-spacing:normal;word-spacing:normal;text-transform:none;writing-mode:lr-tb;direction:ltr;baseline-shift:baseline;text-anchor:start;white-space:normal;clip-rule:nonzero;display:inline;overflow:visible;visibility:visible;opacity:1;isolation:auto;mix-blend-mode:normal;color-interpolation:sRGB;color-interpolation-filters:linearRGB;solid-color:#000000;solid-opacity:1;fill:none;fill-opacity:1;fill-rule:nonzero;stroke:#000000;stroke-width:0.222;stroke-linecap:butt;stroke-linejoin:miter;stroke-miterlimit:6.25;stroke-dasharray:none;stroke-dashoffset:0;stroke-opacity:1;marker-start:;color-rendering:auto;image-rendering:auto;shape-rendering:auto;text-rendering:auto;enable-background:accumulate"
       d="m 148.70402,242.80116 v 0 c 0,-7.24301 -5.87322,-13.11624 -13.11694,-13.11623"
       id="path3557-1-5-8-6" />
  </g>
</svg>
